Chapter 11: Univariate Regression
…
Chapter 11: Univariate Regression

Class One Start

Scene 1

Prompt: Explore the county level data from here with your partner and try to figure out what the variables mean. Can you find any interesting observations? Which variables are worth looking at? poverty is the percentage of the county living in poverty is 2018. less_than_hs is the percentage of the county without at least a high school diploma. hs is the percent of the county who have a high school degree, but no further education. Useful functions include print(), glimpse(), head(), tail(), summary() and skim().

We are interested in understanding how poverty is correlated with (and influenced by?) education.

county

## # A tibble: 3,129 x 6
##    region state name            poverty less_than_hs    hs
##    <chr>  <chr> <chr>             <dbl>        <dbl> <dbl>
##  1 South  AL    Autauga County     13.8         11.3  32.6
##  2 South  AL    Baldwin County      9.8          9.7  27.6
##  3 South  AL    Barbour County     30.9         27    35.7
##  4 South  AL    Bibb County        21.8         16.8  47.3
##  5 South  AL    Blount County      13.2         19.8  34  
##  6 South  AL    Bullock County     42.5         24.8  39.7
##  7 South  AL    Butler County      24.5         15.4  43.9
##  8 South  AL    Calhoun County     19.5         15.9  32.4
##  9 South  AL    Chambers County    18.7         18.6  38.4
## 10 South  AL    Cherokee County    16.3         19.8  38.3
## # ... with 3,119 more rows
…
